11 Data import | R for Data Science (2e)
…
(Note the use of readr_example() which finds the path to one of the files included with the package)

There are two printed outputs: the column specification generated by looking at the first 1000 rows, and the first five parsing failures. It’s always a good idea to explicitly pull out the problems(), so you can explore them in more depth:

problems(challenge)
#> # A tibble: 1,000 x 5
#>     row col   expected       actual   file                                      
#>   <int> <chr> <chr>          <chr>    <chr>                                     
#> 1  1001 y     1/0/T/F/TRUE/… 2015-01… '/home/mxj/R/x86_64-pc-linux-gnu-library/…
#> 2  1002 y     1/0/T/F/TRUE/… 2018-05… '/home/mxj/R/x86_64-pc-linux-gnu-library/…
#> 3  1003 y     1/0/T/F/TRUE/… 2015-09… '/home/mxj/R/x86_64-pc-linux-gnu-library/…
#> 4  1004 y     1/0/T/F/TRUE/… 2012-11… '/home/mxj/R/x86_64-pc-linux-gnu-library/…
#> 5  1005 y     1/0/T/F/TRUE/… 2020-01… '/home/mxj/R/x86_64-pc-linux-gnu-library/…
#> 6  1006 y     1/0/T/F/TRUE/… 2016-04… '/home/mxj/R/x86_64-pc-linux-gnu-library/…
#> # … with 994 more rows
…
There are a few other general strategies to help you parse files:

In the previous example, we just got unlucky: if we look at just
one more row than the default, we can correctly parse in one shot:

challenge2 <- read_csv(readr_example("challenge.csv"), guess_max = 1001)
#> 
#> ── Column specification ────────────────────────────────────────────────────────
#> cols(
#>   x = col_double(),
#>   y = col_date(format = "")
#> )
challenge2
#> # A tibble: 2,000 x 2
#>       x y         
#>   <dbl> <date>    
#> 1   404 NA        
#> 2  4172 NA        
#> 3  3004 NA        
#> 4   787 NA        
#> 5    37 NA        
#> 6  2332 NA        
#> # … with 1,994 more rows
…
Always encoding strings in UTF-8.

Saving dates and date-times in ISO8601 format so they are easily
parsed elsewhere.

If you want to export a csv file to Excel, use write_excel_csv() — this writes a special character (a “byte order mark”) at the start of the file which tells Excel that you’re using the UTF-8 encoding.

The most important arguments are x (the data frame to save), and path (the location to save it). You can also specify how missing values are written with na, and if you want to append to an existing file.

write_csv(challenge, "challenge.csv")

Note that the type information is lost when you save to csv:

challenge
#> # A tibble: 2,000 x 2
#>       x y         
#>   <dbl> <date>    
#> 1   404 NA        
#> 2  4172 NA        
#> 3  3004 NA        
#> 4   787 NA        
#> 5    37 NA        
#> 6  2332 NA        
#> # … with 1,994 more rows
write_csv(challenge, "challenge-2.csv")
read_csv("challenge-2.csv")
#> 
#> ── Column specification ────────────────────────────────────────────────────────
#> cols(
#>   x = col_double(),
#>   y = col_logical()
#> )
#> # A tibble: 2,000 x 2
#>       x y    
#>   <dbl> <lgl>
#> 1   404 NA   
#> 2  4172 NA   
#> 3  3004 NA   
#> 4   787 NA   
#> 5    37 NA   
#> 6  2332 NA   
#> # … with 1,994 more rows

This makes CSVs a little unreliable for caching interim results—you need to recreate the column specification every time you load in. There are two alternatives:

write_rds() and read_rds() are uniform wrappers around the base
functions readRDS() and saveRDS(). These store data in R’s custom
binary format called RDS:

write_rds(challenge, "challenge.rds")
read_rds("challenge.rds")
#> # A tibble: 2,000 x 2
#>       x y         
#>   <dbl> <date>    
#> 1   404 NA        
#> 2  4172 NA        
#> 3  3004 NA        
#> 4   787 NA        
#> 5    37 NA        
#> 6  2332 NA        
#> # … with 1,994 more rows

The feather package implements a fast binary file format that can
be shared across programming languages:

library(feather)
write_feather(challenge, "challenge.feather")
read_feather("challenge.feather")
#> # A tibble: 2,000 x 2
#>       x      y
#>   <dbl> <date>
#> 1   404   <NA>
#> 2  4172   <NA>
#> 3  3004   <NA>
#> 4   787   <NA>
#> 5    37   <NA>
#> 6  2332   <NA>
#> # ... with 1,994 more rows
…
