15 Factors | R for Data Science (2e)
…
If you ever need to access the set of valid levels directly, you can do so with levels():

levels(f2)
#> [1] "Dec" "Apr" "Jan" "Mar"

15.3 General Social Survey

For the rest of this chapter, we’re going to focus on forcats::gss_cat. It’s a sample of data from the General Social Survey, which is a long-running US survey conducted by the independent research organization NORC at the University of Chicago. The survey has thousands of questions, so in gss_cat I’ve selected a handful that will illustrate some common challenges you’ll encounter when working with factors.

gss_cat
#> # A tibble: 21,483 x 9
#>    year marital      age race  rincome    partyid     relig     denom    tvhours
#>   <int> <fct>      <int> <fct> <fct>      <fct>       <fct>     <fct>      <int>
#> 1  2000 Never mar…    26 White $8000 to … Ind,near r… Protesta… Souther…      12
#> 2  2000 Divorced      48 White $8000 to … Not str re… Protesta… Baptist…      NA
#> 3  2000 Widowed       67 White Not appli… Independent Protesta… No deno…       2
#> 4  2000 Never mar…    39 White Not appli… Ind,near r… Orthodox… Not app…       4
#> 5  2000 Divorced      25 White Not appli… Not str de… None      Not app…       1
#> 6  2000 Married       25 White $20000 - … Strong dem… Protesta… Souther…      NA
#> # … with 21,477 more rows
…
There are some suspiciously high numbers in tvhours. Is the mean a good
summary?

For each factor in gss_cat identify whether the order of the levels is
arbitrary or principled.

Why did moving “Not applicable” to the front of the levels move it to the
bottom of the plot?

15.5 Modifying factor levels

More powerful than changing the orders of the levels is changing their values. This allows you to clarify labels for publication, and collapse levels for high-level displays. The most general and powerful tool is fct_recode(). It allows you to recode, or change, the value of each level. For example, take the gss_cat$partyid:

gss_cat %>% count(partyid)
#> # A tibble: 10 x 2
#>   partyid                n
#> * <fct>              <int>
#> 1 No answer            154
#> 2 Don't know             1
#> 3 Other party          393
#> 4 Strong republican   2314
#> 5 Not str republican  3032
#> 6 Ind,near rep        1791
#> # … with 4 more rows

The levels are terse and inconsistent. Let’s tweak them to be longer and use a parallel construction.

gss_cat %>%
  mutate(partyid = fct_recode(partyid,
    "Republican, strong"    = "Strong republican",
    "Republican, weak"      = "Not str republican",
    "Independent, near rep" = "Ind,near rep",
    "Independent, near dem" = "Ind,near dem",
    "Democrat, weak"        = "Not str democrat",
    "Democrat, strong"      = "Strong democrat"
  )) %>%
  count(partyid)
#> # A tibble: 10 x 2
#>   partyid                   n
#> * <fct>                 <int>
#> 1 No answer               154
#> 2 Don't know                1
#> 3 Other party             393
#> 4 Republican, strong     2314
#> 5 Republican, weak       3032
#> 6 Independent, near rep  1791
#> # … with 4 more rows
…
gss_cat %>%
  mutate(partyid = fct_recode(partyid,
    "Republican, strong"    = "Strong republican",
    "Republican, weak"      = "Not str republican",
    "Independent, near rep" = "Ind,near rep",
    "Independent, near dem" = "Ind,near dem",
    "Democrat, weak"        = "Not str democrat",
    "Democrat, strong"      = "Strong democrat",
    "Other"                 = "No answer",
    "Other"                 = "Don't know",
    "Other"                 = "Other party"
  )) %>%
  count(partyid)
#> # A tibble: 8 x 2
#>   partyid                   n
#> * <fct>                 <int>
#> 1 Other                   548
#> 2 Republican, strong     2314
#> 3 Republican, weak       3032
#> 4 Independent, near rep  1791
#> 5 Independent            4119
#> 6 Independent, near dem  2499
#> # … with 2 more rows
…
