24 Model building | R for Data Science (2e)
…
This plot indicates that there are some diamonds with quite large residuals - remember a residual of 2 indicates that the diamond is 4x the price that we expected. It’s often useful to look at unusual values individually:

diamonds2 %>% 
  filter(abs(lresid2) > 1) %>% 
  add_predictions(mod_diamond2) %>% 
  mutate(pred = round(2 ^ pred)) %>% 
  select(price, pred, carat:table, x:z) %>% 
  arrange(price)
#> # A tibble: 16 x 11
#>   price  pred carat cut     color clarity depth table     x     y     z
#>   <int> <dbl> <dbl> <ord>   <ord> <ord>   <dbl> <dbl> <dbl> <dbl> <dbl>
#> 1  1013   264  0.25 Fair    F     SI2      54.4    64  4.3   4.23  2.32
#> 2  1186   284  0.25 Premium G     SI2      59      60  5.33  5.28  3.12
#> 3  1186   284  0.25 Premium G     SI2      58.8    60  5.33  5.28  3.12
#> 4  1262  2644  1.03 Fair    E     I1       78.2    54  5.72  5.59  4.42
#> 5  1415   639  0.35 Fair    G     VS2      65.9    54  5.57  5.53  3.66
#> 6  1415   639  0.35 Fair    G     VS2      65.9    54  5.57  5.53  3.66
#> # … with 10 more rows
…
Does the final model, mod_diamond2, do a good job of predicting
diamond prices? Would you trust it to tell you how much to spend
if you were buying a diamond?

24.3 What affects the number of daily flights?

Let’s work through a similar process for a dataset that seems even simpler at first glance: the number of flights that leave NYC per day. This is a really small dataset — only 365 rows and 2 columns — and we’re not going to end up with a fully realised model, but as you’ll see, the steps along the way will help us better understand the data. Let’s get started by counting the number of flights per day and visualising it with ggplot2.

daily <- flights %>% 
  mutate(date = make_date(year, month, day)) %>% 
  group_by(date) %>% 
  summarise(n = n())
daily
#> # A tibble: 365 x 2
#>   date           n
#> * <date>     <int>
#> 1 2013-01-01   842
#> 2 2013-01-02   943
#> 3 2013-01-03   914
#> 4 2013-01-04   915
#> 5 2013-01-05   720
#> 6 2013-01-06   832
#> # … with 359 more rows
…
Our model fails to accurately predict the number of flights on Saturday:
during summer there are more flights than we expect, and during fall there
are fewer. We’ll see how we can do better to capture this pattern in the
next section.

There are some days with far fewer flights than expected:

daily %>% 
  filter(resid < -100)
#> # A tibble: 11 x 4
#>   date           n wday  resid
#>   <date>     <int> <ord> <dbl>
#> 1 2013-01-01   842 Tue   -109.
#> 2 2013-01-20   786 Sun   -105.
#> 3 2013-05-26   729 Sun   -162.
#> 4 2013-07-04   737 Thu   -229.
#> 5 2013-07-05   822 Fri   -145.
#> 6 2013-09-01   718 Sun   -173.
#> # … with 5 more rows
…
