10 Tibbles | R for Data Science (2e)
…
If this chapter leaves you wanting to learn more about tibbles, you might enjoy vignette("tibble").

10.1.1 Prerequisites

In this chapter we’ll explore the tibble package, part of the core tidyverse.

library(tidyverse)

10.2 Creating tibbles

Almost all of the functions that you’ll use in this book produce tibbles, as tibbles are one of the unifying features of the tidyverse. Most other R packages use regular data frames, so you might want to coerce a data frame to a tibble. You can do that with as_tibble():

as_tibble(iris)
#> # A tibble: 150 x 5
#>   Sepal.Length Sepal.Width Petal.Length Petal.Width Species
#>          <dbl>       <dbl>        <dbl>       <dbl> <fct>  
#> 1          5.1         3.5          1.4         0.2 setosa 
#> 2          4.9         3            1.4         0.2 setosa 
#> 3          4.7         3.2          1.3         0.2 setosa 
#> 4          4.6         3.1          1.5         0.2 setosa 
#> 5          5           3.6          1.4         0.2 setosa 
#> 6          5.4         3.9          1.7         0.4 setosa 
#> # … with 144 more rows
…
There are two main differences in the usage of a tibble vs. a classic data.frame: printing and subsetting.

10.3.1 Printing

Tibbles have a refined print method that shows only the first 10 rows, and all the columns that fit on screen. This makes it much easier to work with large data. In addition to its name, each column reports its type, a nice feature borrowed from str():

tibble(
  a = lubridate::now() + runif(1e3) * 86400,
  b = lubridate::today() + runif(1e3) * 30,
  c = 1:1e3,
  d = runif(1e3),
  e = sample(letters, 1e3, replace = TRUE)
)
#> # A tibble: 1,000 x 5
#>   a                   b              c     d e    
#>   <dttm>              <date>     <int> <dbl> <chr>
#> 1 2021-02-14 21:06:50 2021-02-21     1 0.368 n    
#> 2 2021-02-15 15:12:00 2021-02-26     2 0.612 l    
#> 3 2021-02-15 09:35:39 2021-03-08     3 0.415 p    
#> 4 2021-02-14 22:56:56 2021-03-07     4 0.212 m    
#> 5 2021-02-14 19:21:13 2021-03-04     5 0.733 i    
#> 6 2021-02-15 06:22:10 2021-02-28     6 0.460 n    
#> # … with 994 more rows
…
