…
```r
table1
#> # A tibble: 6 x 4
#>   country      year  cases population
#>   <chr>       <int>  <int>      <int>
#> 1 Afghanistan  1999    745   19987071
#> 2 Afghanistan  2000   2666   20595360
#> 3 Brazil       1999  37737  172006362
#> 4 Brazil       2000  80488  174504898
#> 5 China        1999 212258 1272915272
#> 6 China        2000 213766 1280428583
table2
#> # A tibble: 12 x 4
#>   country      year type           count
#>   <chr>       <int> <chr>          <int>
#> 1 Afghanistan  1999 cases            745
#> 2 Afghanistan  1999 population  19987071
#> 3 Afghanistan  2000 cases           2666
#> 4 Afghanistan  2000 population  20595360
#> 5 Brazil       1999 cases          37737
#> 6 Brazil       1999 population 172006362
#> # … with 6 more rows
…
### Wider

`pivot_wider()` is the opposite of `pivot_longer()`. You use it when an observation is scattered across multiple rows. For example, take `table2`: an observation is a country in a year, but each observation is spread across two rows.


```r
table2
#> # A tibble: 12 x 4
#>   country      year type           count
#>   <chr>       <int> <chr>          <int>
#> 1 Afghanistan  1999 cases            745
#> 2 Afghanistan  1999 population  19987071
#> 3 Afghanistan  2000 cases           2666
#> 4 Afghanistan  2000 population  20595360
#> 5 Brazil       1999 cases          37737
#> 6 Brazil       1999 population 172006362
#> # … with 6 more rows
```
…
1.  One way of summarising the distribution of one categorical variable based 
    on the levels of another is using `dplyr::count()`, e.g. the following 
    gives the distribution of `drv` (type of drive train) for each level of 
    `cyl` (number of cylinders) for cars in the `mpg` dataset.
    
    
    ```r
    mpg %>%
      count(cyl, drv)
    #> # A tibble: 9 x 3
    #>     cyl drv       n
    #>   <int> <chr> <int>
    #> 1     4 4        23
    #> 2     4 f        58
    #> 3     5 f         4
    #> 4     6 4        32
    #> 5     6 f        43
    #> 6     6 r         4
    #> # … with 3 more rows
    ```
…
Another important tool for making missing values explicit in tidy data is `complete()`:


```r
stocks %>%
  complete(year, qtr)
#> # A tibble: 8 x 3
#>    year   qtr return
#>   <dbl> <dbl>  <dbl>
#> 1  2015     1   1.88
#> 2  2015     2   0.59
#> 3  2015     3   0.35
#> 4  2015     4  NA   
#> 5  2016     1  NA   
#> 6  2016     2   0.92
#> # … with 2 more rows
```
…
1.  Compare and contrast the `fill` arguments to `pivot_wider()` and `complete()`. 

1.  What does the direction argument to `fill()` do?

## Case study

To finish off the chapter, let's pull together everything you've learned to tackle a realistic data tidying problem. The `tidyr::who` dataset contains tuberculosis (TB) cases broken down by year, country, age, gender, and diagnosis method. The data comes from the *2014 World Health Organization Global Tuberculosis Report*, available at <http://www.who.int/tb/country/data/download/en>.

There's a wealth of epidemiological information in this dataset, but it's challenging to work with the data in the form that it's provided:


```r
who
#> # A tibble: 7,240 x 60
#>   country iso2  iso3   year new_sp_m014 new_sp_m1524 new_sp_m2534 new_sp_m3544
#>   <chr>   <chr> <chr> <int>       <int>        <int>        <int>        <int>
#> 1 Afghan… AF    AFG    1980          NA           NA           NA           NA
#> 2 Afghan… AF    AFG    1981          NA           NA           NA           NA
#> 3 Afghan… AF    AFG    1982          NA           NA           NA           NA
#> 4 Afghan… AF    AFG    1983          NA           NA           NA           NA
#> 5 Afghan… AF    AFG    1984          NA           NA           NA           NA
#> 6 Afghan… AF    AFG    1985          NA           NA           NA           NA
#> # … with 7,234 more rows, and 52 more variables: new_sp_m4554 <int>,
#> #   new_sp_m5564 <int>, new_sp_m65 <int>, new_sp_f014 <int>,
#> #   new_sp_f1524 <int>, new_sp_f2534 <int>, new_sp_f3544 <int>,
#> #   new_sp_f4554 <int>, new_sp_f5564 <int>, new_sp_f65 <int>,
#> #   new_sn_m014 <int>, new_sn_m1524 <int>, new_sn_m2534 <int>,
#> #   new_sn_m3544 <int>, new_sn_m4554 <int>, new_sn_m5564 <int>,
#> #   new_sn_m65 <int>, new_sn_f014 <int>, new_sn_f1524 <int>,
#> #   new_sn_f2534 <int>, new_sn_f3544 <int>, new_sn_f4554 <int>,
#> #   new_sn_f5564 <int>, new_sn_f65 <int>, new_ep_m014 <int>,
…
*  Some of the variables start with `new_` while some of them start with `new` without an underscore separating it from the diagnosis.
*  The diagnoses and the age groups are indicated by varying numbers of characters (e.g. `sp` vs. `rel` and `014` vs. `4554`.)

The regular expression that will capture all of these inconsistencies and extract the three groups of information we need is `new_?(.*)_(.)(.*)`.


```r
who %>%
  pivot_longer(
    cols = new_sp_m014:newrel_f65,
    names_to = c("diagnosis", "gender", "age"),
    names_pattern = "new_?(.*)_(.)(.*)",
    values_to = "cases"
  )
#> # A tibble: 405,440 x 8
#>   country     iso2  iso3   year diagnosis gender age   cases
#>   <chr>       <chr> <chr> <int> <chr>     <chr>  <chr> <int>
#> 1 Afghanistan AF    AFG    1980 sp        m      014      NA
#> 2 Afghanistan AF    AFG    1980 sp        m      1524     NA
#> 3 Afghanistan AF    AFG    1980 sp        m      2534     NA
#> 4 Afghanistan AF    AFG    1980 sp        m      3544     NA
#> 5 Afghanistan AF    AFG    1980 sp        m      4554     NA
#> 6 Afghanistan AF    AFG    1980 sp        m      5564     NA
#> # … with 405,434 more rows
```

This looks pretty good for a first pass, but there are some improvements we can make. First, we're seeing lots of `NA`s in the `cases` column. We can drop these observations by setting `values_drop_na` to `TRUE`.


```r
who %>%
  pivot_longer(
    cols = new_sp_m014:newrel_f65,
    names_to = c("diagnosis", "gender", "age"),
    names_pattern = "new_?(.*)_(.)(.*)",
    values_to = "cases",
    values_drop_na = TRUE
  )
#> # A tibble: 76,046 x 8
#>   country     iso2  iso3   year diagnosis gender age   cases
#>   <chr>       <chr> <chr> <int> <chr>     <chr>  <chr> <int>
#> 1 Afghanistan AF    AFG    1997 sp        m      014       0
#> 2 Afghanistan AF    AFG    1997 sp        m      1524     10
#> 3 Afghanistan AF    AFG    1997 sp        m      2534      6
#> 4 Afghanistan AF    AFG    1997 sp        m      3544      3
#> 5 Afghanistan AF    AFG    1997 sp        m      4554      5
#> 6 Afghanistan AF    AFG    1997 sp        m      5564      2
#> # … with 76,040 more rows
```
…
    cols = new_sp_m014:newrel_f65,
    names_to = c("diagnosis", "gender", "age"),
    names_pattern = "new_?(.*)_(.)(.*)",
    values_to = "cases",
    values_drop_na = TRUE
  ) %>%
  mutate(
    gender = parse_factor(gender, levels = c("f", "m")),
    age = parse_factor(
      age,
      levels = c("014", "1524", "2534", "3544", "4554", "5564", "65"),
      ordered = TRUE
    )
  )
#> # A tibble: 76,046 x 8
#>   country     iso2  iso3   year diagnosis gender age   cases
#>   <chr>       <chr> <chr> <int> <chr>     <fct>  <ord> <int>
#> 1 Afghanistan AF    AFG    1997 sp        m      014       0
#> 2 Afghanistan AF    AFG    1997 sp        m      1524     10
#> 3 Afghanistan AF    AFG    1997 sp        m      2534      6
#> 4 Afghanistan AF    AFG    1997 sp        m      3544      3
#> 5 Afghanistan AF    AFG    1997 sp        m      4554      5
#> 6 Afghanistan AF    AFG    1997 sp        m      5564      2
#> # … with 76,040 more rows
```
…
      ordered = TRUE
    ),
    age = fct_recode(
      age,
      "0-14"  = "014",
      "15-24" = "1524",
      "25-34" = "2534",
      "35-44" = "3544",
      "45-54" = "4554",
      "55-64" = "5564",
      "65+"   = "65"
    )
  )
who_tidy
#> # A tibble: 76,046 x 8
#>   country     iso2  iso3   year diagnosis gender age   cases
#>   <chr>       <chr> <chr> <int> <chr>     <fct>  <ord> <int>
#> 1 Afghanistan AF    AFG    1997 sp        m      0-14      0
#> 2 Afghanistan AF    AFG    1997 sp        m      15-24    10
#> 3 Afghanistan AF    AFG    1997 sp        m      25-34     6
#> 4 Afghanistan AF    AFG    1997 sp        m      35-44     3
#> 5 Afghanistan AF    AFG    1997 sp        m      45-54     5
#> 6 Afghanistan AF    AFG    1997 sp        m      55-64     2
#> # … with 76,040 more rows
```
…
